module backend

go 1.19

require (
	github.com/go-kratos/kratos/v2 v2.7.2
	github.com/google/wire v0.5.0
	go.uber.org/automaxprocs v1.5.1
	google.golang.org/genproto/googleapis/api v0.0.0-20230629202037-9506855d4529
	google.golang.org/grpc v1.56.3
	google.golang.org/protobuf v1.32.0
)

require (
	github.com/fsnotify/fsnotify v1.6.0 // indirect
	github.com/go-kratos/aegis v0.2.0 // indirect
	github.com/go-logr/logr v1.2.4 // indirect
	github.com/go-logr/stdr v1.2.2 // indirect
	github.com/go-playground/form/v4 v4.2.1 // indirect
	github.com/golang/protobuf v1.5.3 // indirect
	github.com/google/uuid v1.6.0 // indirect
	github.com/gorilla/mux v1.8.0 // indirect
	github.com/imdario/mergo v0.3.16 // indirect
	github.com/jackc/pgpassfile v1.0.0 // indirect
	github.com/jackc/pgservicefile v0.0.0-20231201235250-de7065d80cb9 // indirect
	github.com/jackc/pgx/v5 v5.5.5 // indirect
	github.com/jackc/puddle/v2 v2.2.1 // indirect
	github.com/jinzhu/inflection v1.0.0 // indirect
	github.com/jinzhu/now v1.1.5 // indirect
	github.com/kr/text v0.2.0 // indirect
	go.opentelemetry.io/otel v1.16.0 // indirect
	go.opentelemetry.io/otel/metric v1.16.0 // indirect
	go.opentelemetry.io/otel/trace v1.16.0 // indirect
	golang.org/x/crypto v0.23.0 // indirect
	golang.org/x/net v0.21.0 // indirect
	golang.org/x/sync v0.7.0 // indirect
	golang.org/x/sys v0.20.0 // indirect
	golang.org/x/text v0.15.0 // indirect
	google.golang.org/genproto v0.0.0-20230629202037-9506855d4529 // indirect
	google.golang.org/genproto/googleapis/rpc v0.0.0-20230629202037-9506855d4529 // indirect
	gopkg.in/yaml.v3 v3.0.1 // indirect
)
